…
#### Exploration
**Plan1: Mean for Each Day**

```r
meanData1 <- 
  activity %>% 
  group_by(date) %>% 
  summarise(mean=mean(steps,na.rm = TRUE))
meanData1
```

```
## # A tibble: 61 x 2
##    date          mean
##    <date>       <dbl>
##  1 2012-10-01 NaN    
##  2 2012-10-02   0.438
##  3 2012-10-03  39.4  
##  4 2012-10-04  42.1  
##  5 2012-10-05  46.2  
##  6 2012-10-06  53.5  
##  7 2012-10-07  38.2  
##  8 2012-10-08 NaN    
##  9 2012-10-09  44.5  
## 10 2012-10-10  34.4  
## # ... with 51 more rows
```
**Plan2: Median for Each Day**

```r
medianData2 <- 
  activity %>% 
  group_by(date) %>% 
  summarise(median=median(steps,na.rm = TRUE))
medianData2
```

```
## # A tibble: 61 x 2
##    date       median
##    <date>      <dbl>
##  1 2012-10-01     NA
##  2 2012-10-02      0
##  3 2012-10-03      0
##  4 2012-10-04      0
##  5 2012-10-05      0
##  6 2012-10-06      0
##  7 2012-10-07      0
##  8 2012-10-08     NA
##  9 2012-10-09      0
## 10 2012-10-10      0
## # ... with 51 more rows
```
**Plan3: Mean for Each 5 Minute Interval**

```r
meanData3 <- 
  activity %>% 
  group_by(interval) %>% 
  summarise(mean=mean(steps,na.rm = TRUE))
meanData3
```

```
## # A tibble: 288 x 2
##    interval   mean
##       <int>  <dbl>
##  1        0 1.72  
##  2        5 0.340 
##  3       10 0.132 
##  4       15 0.151 
##  5       20 0.0755
##  6       25 2.09  
##  7       30 0.528 
##  8       35 0.868 
##  9       40 0     
## 10       45 1.47  
## # ... with 278 more rows
```
**Plan4: Median for Each 5 Minute Interval**

```r
medianData4 <- 
  activity %>% 
  group_by(interval) %>% 
  summarise(median=median(steps,na.rm = TRUE))
medianData4
```

```
## # A tibble: 288 x 2
##    interval median
##       <int>  <int>
##  1        0      0
##  2        5      0
##  3       10      0
##  4       15      0
##  5       20      0
##  6       25      0
##  7       30      0
##  8       35      0
##  9       40      0
## 10       45      0
## # ... with 278 more rows
```
…
